Manipulation de données avec dplyr
…
library(tidyverse)

… mais cela chargera d’autres packages en plus

Et charger les données.

data("fruits", package = "tidyViz")

Le format “tibble”

Les données sont au format “tibble” : c’est comme des “data-frames” mais en mieux !

fruits
#> # A tibble: 51 x 18
#>    nom    groupe Energie   Eau Proteines Glucides Lipides Sucres Fructose Fibres
#>    <chr>  <chr>    <dbl> <dbl>     <dbl>    <dbl>   <dbl>  <dbl>    <dbl>  <dbl>
#>  1 Abric… crus       194  87.1      0.81     9.01    0.25    6.7     1.3    1.7 
#>  2 Abric… secs      1010  24.7      2.88    59.1     0.5    34.3    10.6    8.3 
#>  3 Ananas exoti…     304  81.3      0.94    15.1     0.25   14.9     2.8    2.4 
#>  4 Banane exoti…     383  75.8      1.06    19.7     0.25   15.6     3.8    2.7 
#>  5 Canne… secs      1410  14.6      0.25    76.4     1      72.8    28.4    5.7 
#>  6 Cerise crus       235  85.7      0.81    13       0.25   10       4.6    1.6 
#>  7 Citron crus       118  91.3      0.25     1.56    0.25    0.8     0.4    0.25
#>  8 Cleme… crus       200  87        0.81     9.17    0.25    8.6     1.5    1.7 
#>  9 Compo… compo…     279  82.9      0.25    15.3     0.08   14.6     6.92   1.6 
#> 10 Compo… compo…     432  72.9      0.23    24.4     0.21   20.7     7.9    1.53
#> # … with 41 more rows, and 8 more variables: Calcium <dbl>, Magnesium <dbl>,
#> #   Phosphore <dbl>, Potassium <dbl>, Zinc <dbl>, BetaCarotene <dbl>,
#> #   VitamineE <dbl>, VitamineC <dbl>
…
fruits[, 
  c(
    "Energie",
    "Sucres",
    "Lipides",
    "Proteines")]

Trier des lignes

Avec les fonctions arrange et desc.

fruits %>% 
  select(Energie, Sucres, Fibres) %>%
  arrange(desc(Fibres))
#> # A tibble: 51 x 3
#>    Energie Sucres Fibres
#>      <dbl>  <dbl>  <dbl>
#>  1    1010  34.3     8.3
#>  2     425   8.5     6.8
#>  3    1410  72.8     5.7
#>  4     198   6.1     5.2
#>  5     969  38.1     5.1
#>  6     289   6.63    4.6
#>  7     206   5.4     4.3
#>  8     170   2.1     4.3
#>  9    1360  70.3     4.2
#> 10     293  12.2     4.1
#> # … with 41 more rows

Avec les fonctions classiques

fruits[
  order(fruits$Fibres, decreasing = TRUE),
  c("Energie", "Sucres", "Fibres")]
#> # A tibble: 51 x 3
#>    Energie Sucres Fibres
#>      <dbl>  <dbl>  <dbl>
#>  1    1010  34.3     8.3
#>  2     425   8.5     6.8
#>  3    1410  72.8     5.7
#>  4     198   6.1     5.2
#>  5     969  38.1     5.1
#>  6     289   6.63    4.6
#>  7     206   5.4     4.3
#>  8     170   2.1     4.3
#>  9    1360  70.3     4.2
#> 10     293  12.2     4.1
#> # … with 41 more rows
…
Agréger des colonnes

Avec la fonction group_by :

fruits %>% group_by(groupe)
#> # A tibble: 51 x 18
#> # Groups:   groupe [4]
#>    nom    groupe Energie   Eau Proteines Glucides Lipides Sucres Fructose Fibres
#>    <chr>  <chr>    <dbl> <dbl>     <dbl>    <dbl>   <dbl>  <dbl>    <dbl>  <dbl>
#>  1 Abric… crus       194  87.1      0.81     9.01    0.25    6.7     1.3    1.7 
#>  2 Abric… secs      1010  24.7      2.88    59.1     0.5    34.3    10.6    8.3 
#>  3 Ananas exoti…     304  81.3      0.94    15.1     0.25   14.9     2.8    2.4 
#>  4 Banane exoti…     383  75.8      1.06    19.7     0.25   15.6     3.8    2.7 
#>  5 Canne… secs      1410  14.6      0.25    76.4     1      72.8    28.4    5.7 
#>  6 Cerise crus       235  85.7      0.81    13       0.25   10       4.6    1.6 
#>  7 Citron crus       118  91.3      0.25     1.56    0.25    0.8     0.4    0.25
#>  8 Cleme… crus       200  87        0.81     9.17    0.25    8.6     1.5    1.7 
#>  9 Compo… compo…     279  82.9      0.25    15.3     0.08   14.6     6.92   1.6 
#> 10 Compo… compo…     432  72.9      0.23    24.4     0.21   20.7     7.9    1.53
#> # … with 41 more rows, and 8 more variables: Calcium <dbl>, Magnesium <dbl>,
#> #   Phosphore <dbl>, Potassium <dbl>, Zinc <dbl>, BetaCarotene <dbl>,
#> #   VitamineE <dbl>, VitamineC <dbl>
…
